<?xml version="1.0" encoding="utf-8"?>
<!-- Generator: Adobe Illustrator 15.0.1, SVG Export Plug-In . SVG Version: 6.00 Build 0)  -->
<!DOCTYPE svg PUBLIC "-//W3C//DTD SVG 1.1//EN" "http://www.w3.org/Graphics/SVG/1.1/DTD/svg11.dtd">
<svg version="1.1" id="Layer_1" xmlns="http://www.w3.org/2000/svg" xmlns:xlink="http://www.w3.org/1999/xlink" x="0px" y="0px"
	 width="147.468px" height="102.531px" viewBox="0 0 147.468 102.531" enable-background="new 0 0 147.468 102.531"
	 xml:space="preserve">
<path stroke="#FFFFFF" stroke-width="4" stroke-miterlimit="10" d="M126.544,19.59c0,0,4.999-5.667,7.666-7.667s0-1,0-1
	s10-1.333,8,8.667c0,0-17,23-22,35.667s-14.999,33.667-15.666,35.667c0,0-12.334,7.332-22.667,5.666s-24-6-30-11s-13-23.333-49-21
	l47-53.917c0,0,18.025,10.564,29.477,13.167C94.021,27.174,126.544,19.59,126.544,19.59z"/>
<path stroke="#FFFFFF" stroke-width="4" stroke-miterlimit="10" d="M96.877,84.59c0,0-5.666,6.333-7.333,0s10-7,11-3
	s2.988,9.896-1.28,11.926"/>
<path fill="none" stroke="#FFFFFF" stroke-width="4" stroke-miterlimit="10" d="M89.603,82.164c0,0,12.94-25.24,19.607-36.24
	s25-34,25-34"/>
<path fill="none" d="M64.877,35.59c0,0-6,6-18,5.667"/>
<path fill="#020202" stroke="#FFFFFF" stroke-width="4" stroke-miterlimit="10" d="M85.009,14.323
	c0,5.56-4.507,10.066-10.065,10.066c-0.782,0-1.543-0.089-2.273-0.258c-4.464-1.03-7.793-5.03-7.793-9.808
	c0-5.559,4.507-10.066,10.066-10.066C80.502,4.257,85.009,8.764,85.009,14.323z"/>
<line fill="#EA1818" stroke="#FFFFFF" stroke-width="4" stroke-miterlimit="10" x1="74.676" y1="53.755" x2="74.676" y2="24.131"/>
</svg>
