<?xml version="1.0" encoding="utf-8"?>
<!-- Generator: Adobe Illustrator 15.0.1, SVG Export Plug-In . SVG Version: 6.00 Build 0)  -->
<!DOCTYPE svg PUBLIC "-//W3C//DTD SVG 1.1//EN" "http://www.w3.org/Graphics/SVG/1.1/DTD/svg11.dtd">
<svg version="1.1" id="Layer_1" xmlns="http://www.w3.org/2000/svg" xmlns:xlink="http://www.w3.org/1999/xlink" x="0px" y="0px"
	 width="560px" height="470px" viewBox="0 0 560 470" enable-background="new 0 0 560 470" xml:space="preserve">
<g>
	<defs>
		<rect id="SVGID_1_" y="137.736" width="389.232" height="332.264"/>
	</defs>
	<clipPath id="SVGID_2_">
		<use xlink:href="#SVGID_1_"  overflow="visible"/>
	</clipPath>
	<rect x="12.873" y="170.127" clip-path="url(#SVGID_2_)" fill="none" width="157.895" height="269.298"/>
	<g clip-path="url(#SVGID_2_)">
		
			<image overflow="visible" width="798" height="772" xlink:href="../../../../../../Desktop/Screen Shot 2013-04-11 at 1.07.27 PM.png"  transform="matrix(0.4878 0 0 0.4878 0 137.7368)">
		</image>
	</g>
</g>
<rect y="137.736" opacity="0.2" fill="#020202" width="389.232" height="332.264"/>
<rect x="389.232" fill="#FFFFFF" width="170.768" height="470"/>
<rect fill="#FFD700" width="559" height="137.736"/>
<rect x="403.13" y="147.647" fill="none" width="150.35" height="308.391"/>
<text transform="matrix(1 0 0 1 403.1309 156.647)"><tspan x="0" y="0" font-family="'ChunkFive-Roman'" font-size="12">Farmer </tspan><tspan x="0" y="14.4" font-family="'Junction'" font-size="12">Bill Niman</tspan><tspan x="0" y="40.8" font-family="'ChunkFive-Roman'" font-size="12">History </tspan><tspan x="0" y="55.2" font-family="'Junction'" font-size="12">Lorem ipsum dolor sit </tspan><tspan x="0" y="69.6" font-family="'Junction'" font-size="12">amet, consectetur </tspan><tspan x="0" y="84" font-family="'Junction'" font-size="12">adipiscing elit. Nunc risus </tspan><tspan x="0" y="98.4" font-family="'Junction'" font-size="12">lacus, malesuada vel </tspan><tspan x="0" y="112.8" font-family="'Junction'" font-size="12">lobortis eget, suscipit sed </tspan><tspan x="0" y="127.2" font-family="'Junction'" font-size="12">massa. Phasellus gravida </tspan><tspan x="0" y="141.6" font-family="'Junction'" font-size="12">feugiat adipiscing. Nullam </tspan><tspan x="0" y="156" font-family="'Junction'" font-size="12">lectus diam, auctor nec </tspan><tspan x="0" y="170.4" font-family="'Junction'" font-size="12">vestibulum ac, bibendum </tspan><tspan x="0" y="184.8" font-family="'Junction'" font-size="12">eget lorem. Phasellus </tspan><tspan x="0" y="199.2" font-family="'Junction'" font-size="12">gravida feugiat adipisc</tspan><tspan x="131.016" y="199.2" font-family="'Junction'" font-size="12">-</tspan><tspan x="0" y="213.6" font-family="'Junction'" font-size="12">ing. Nullam lectus diam, </tspan><tspan x="0" y="228" font-family="'Junction'" font-size="12">auctor nec vestibulum ac, </tspan><tspan x="0" y="242.4" font-family="'Junction'" font-size="12">bibendum eget lorem. </tspan><tspan x="0" y="268.8" font-family="'ChunkFive-Roman'" font-size="12">Other crops </tspan><tspan x="0" y="283.2" font-family="'Junction'" font-size="12">wool, eggs, vegetables </tspan></text>
<g>
	<defs>
		<rect id="SVGID_3_" x="389.191" y="0.129" width="170.85" height="137.478"/>
	</defs>
	<clipPath id="SVGID_4_">
		<use xlink:href="#SVGID_3_"  overflow="visible"/>
	</clipPath>
	<g id="Uje9E7_1_" clip-path="url(#SVGID_4_)">
		
			<image overflow="visible" width="1274" height="1111" id="Uje9E7" xlink:href="22613166.jpg"  transform="matrix(0.1602 0 0 0.1602 379.4023 -14.0947)">
		</image>
	</g>
</g>
<rect x="141.056" y="32.337" fill="none" width="231.944" height="79.73"/>
<text transform="matrix(1 0 0 1 141.0557 54.8369)"><tspan x="0" y="0" font-family="'ChunkFive-Roman'" font-size="30">Niman Ranch</tspan><tspan x="0" y="26.4" font-family="'ChunkFive-Roman'" font-size="12">Stoughton, MA </tspan><tspan x="0" y="40.8" font-family="'ChunkFive-Roman'" font-size="12">30.2 miles</tspan></text>
<path fill="#030303" d="M25.804,94.841c-1.003,0-2.546-2.851-3.564-3.87c-1.018-1.018-1.629-0.916-1.323-3.461
	c0.305-2.545-0.204-11.098-0.815-12.421s-0.916-2.24-0.712-4.174c0.203-1.935-0.102-3.462-0.917-5.905
	c-0.815-2.443-2.342-5.498-2.647-8.756s-3.768-8.553-0.509-14.866c0,0-2.444-0.916-2.444-1.629s2.036-0.408,2.647-0.408
	s1.019-0.204,1.019-0.204s4.378-5.804,12.218-6.821c7.84-1.019,25.353,1.731,36.043,5.498c10.691,3.767,9.979,2.952,12.422,3.36
	c2.443,0.407,6.516,0.917,12.116,8.349c0,0,1.731,2.138,1.935,3.156s1.935,3.462,2.953,4.174c1.018,0.713,3.666,4.684,3.666,4.684
	s4.072,0.102,8.247,1.73c4.174,1.629,5.192,3.157,6.516,3.258c1.324,0.102,3.359,0.509,3.258,1.222
	c-0.102,0.712-1.934,1.324-3.156,0.814c-1.222-0.509-1.425-0.713-3.054-0.102c-1.629,0.611-4.48,1.527-6.415,0.204
	c0,0-0.204,5.294-0.204,7.229s-0.509,2.953,0.204,5.499c0.712,2.545,1.018,2.138,1.324,3.461s0.814,1.324,1.324,1.629
	s0.814,0.712-0.204,1.527c-1.018,0.814-2.545,2.341-4.378,2.647c-1.833,0.305-1.527,0.509-2.341-0.408
	c-0.815-0.917-2.749-1.832-3.666-2.138c-0.917-0.305-6.109-2.341-8.96-5.091c0,0,1.527,5.6,5.091,10.691
	c0,0,1.324,1.323-0.203,1.323c-1.527,0-3.768,0.611-4.582-0.306c-0.814-0.916-1.833-2.138-1.833-2.138s-1.12,0.814-1.629-0.814
	c-0.509-1.629-0.712-4.684-1.425-5.905c-0.712-1.222-1.934-4.887-3.563-6.924c-1.629-2.036-4.276-7.432-4.276-8.247
	s-0.713-0.712-2.24-1.018s-2.851-0.204-2.851-0.204s0,1.527,0,3.157c0,1.629,0.408,2.443,0.408,3.461s-0.611,4.174-0.815,5.702
	c-0.204,1.527,0.509,4.48,0.611,5.702c0.102,1.222,0.204,4.785,1.018,6.109s1.222,1.833-0.611,1.73
	c-1.832-0.102-2.851,0-3.563-0.102c-0.712-0.102-1.833-4.073-1.833-4.073s-0.814,1.833-1.324,1.12c-0.509-0.712,0-4.276,0-5.498
	c0-1.222,0.407-1.935-0.204-6.007s-1.527-9.672-2.545-11.403c-1.019-1.731-1.019-4.378-2.036-4.888
	c-1.018-0.509-7.229-1.018-8.858-1.018s-3.461,0.713-6.822,0.509c-3.36-0.204-6.415-2.138-7.84-2.24s-1.731-0.305-3.156,2.342
	s-1.935,5.905-2.545,7.127c-0.611,1.222-1.222,2.851-1.222,2.851s-1.018,5.601,0.204,9.062s1.12,3.461,1.12,4.276
	c0,0.814,1.121,5.803,1.731,6.719C31.2,95.044,30.895,94.841,25.804,94.841z"/>
<g>
	<path fill="#FFFFFF" d="M136.25,362.528c0,4.971,4.029,9,9,9h219.501c4.971,0,9-4.029,9-9V160.594c0-4.971-4.029-9-9-9H145.25
		c-4.971,0-9,4.029-9,9V362.528z"/>
</g>
<polyline fill="#FFFFFF" points="327.404,153.529 378.098,128.529 362.82,153.529 "/>
<rect x="158.763" y="161.647" fill="none" width="196.529" height="211.325"/>
<text transform="matrix(1 0 0 1 158.7632 171.4873)"><tspan x="0" y="0" font-family="'Junction'" font-size="12">What we’re about Phasellus </tspan><tspan x="0" y="14.4" font-family="'Junction'" font-size="12">gravida feugiat adipiscing. Nullam </tspan><tspan x="0" y="28.8" font-family="'Junction'" font-size="12">lectus diam, auctor nec vestibu</tspan><tspan x="177.204" y="28.8" font-family="'Junction'" font-size="12">-</tspan><tspan x="0" y="43.2" font-family="'Junction'" font-size="12">lum Lorem ipsum dolor sit amet, </tspan><tspan x="0" y="57.6" font-family="'Junction'" font-size="12">consectetur adipiscing elit. Nunc </tspan><tspan x="0" y="72" font-family="'Junction'" font-size="12">risus lacus, malesuada vel lobortis </tspan><tspan x="0" y="86.399" font-family="'Junction'" font-size="12">eget, suscipit sed massa. Phasel</tspan><tspan x="182.17" y="86.399" font-family="'Junction'" font-size="12">-</tspan><tspan x="0" y="100.8" font-family="'Junction'" font-size="12">lus gravida feugiat adipiscing. </tspan><tspan x="0" y="115.2" font-family="'Junction'" font-size="12">Nullam lectus diam, auctor nec </tspan><tspan x="0" y="129.601" font-family="'Junction'" font-size="12">vestibulum ac, bibendum eget </tspan><tspan x="0" y="144.001" font-family="'Junction'" font-size="12">lorem. Phasellus gravida feugiat </tspan><tspan x="0" y="158.399" font-family="'Junction'" font-size="12">adipiscing. Nullam le</tspan></text>
<rect x="114.402" y="143.694" fill="none" width="75.695" height="113.195"/>
<text transform="matrix(1 0 0 1 114.4023 198.0132)" font-family="'Rockwell-Bold'" font-size="80">“</text>
</svg>
