<?xml version="1.0" encoding="utf-8"?>
<!-- Generator: Adobe Illustrator 15.0.1, SVG Export Plug-In . SVG Version: 6.00 Build 0)  -->
<!DOCTYPE svg PUBLIC "-//W3C//DTD SVG 1.1//EN" "http://www.w3.org/Graphics/SVG/1.1/DTD/svg11.dtd">
<svg version="1.1" id="Layer_1" xmlns="http://www.w3.org/2000/svg" xmlns:xlink="http://www.w3.org/1999/xlink" x="0px" y="0px"
	 width="400px" height="400px" viewBox="0 0 400 400" enable-background="new 0 0 400 400" xml:space="preserve">
<path fill="#010101" d="M328.732,157.391c-1.766-7.706-2.889-11.398-2.889-15.411c0-4.014,2.408-10.274,3.211-14.288
	c0.803-4.013-3.371-0.321-1.926-9.631s3.209-7.544,0.963-12.2c-2.248-4.655-0.963-3.853,0.641-6.421
	c1.605-2.568-12.039-16.695-17.176-21.19c-5.135-4.495-7.062-8.347-11.879-8.667c-4.814-0.322-2.889,1.124-6.1-4.496
	c-3.211-5.618-14.449-3.691-22.475,4.816c-8.025,8.509-12.359,33.39-12.521,35.638c-0.16,2.248-2.086,2.248-1.766,11.397
	c0.322,9.15-7.383,16.374-18.299,24.079c-10.916,7.706-34.674,4.334-47.518,3.692c-12.841-0.642-23.116-16.374-27.771-26.808
	c-4.655-10.435-13.003-28.253-20.227-37.083c-7.225-8.829-27.772-21.35-27.772-21.35l0.803-0.803
	c3.209-1.686,5.057-3.853,4.333-6.983c-0.721-3.13-1.925-5.137-3.772-3.451c-1.846,1.685-3.772,2.648-3.691-0.481
	c0.08-3.13-1.847-3.372-2.81-0.803c-0.963,2.569-1.526,3.05-2.087-0.161c-0.562-3.211-2.248,0.482-3.612,2.729
	c-1.363,2.247-2.407-0.482-4.896-4.335c-2.488-3.853-2.648,0.161-2.488,3.05c0.161,2.89-1.685,2.568-3.451,0
	c-1.765-2.568-2.328,0.723-2.248,3.291c0.08,2.568-2.567,1.846-2.889-0.081c-0.322-1.926-2.247,4.495-2.89,6.742
	c-0.643,2.248,0,0-2.567,1.605c-2.569,1.606,0.963,10.595-2.569,10.595s-1.926,5.458-1.926,5.458
	c-8.349,3.853-9.312,10.595-9.312,10.595c-0.802,2.248,0.963,1.124,0.963,1.124c3.531-3.05,9.633-3.372,13.807-3.372
	c4.172,0,1.925,1.606,1.925,1.606c-1.925,4.495-2.407,8.187,0.162,14.447c2.568,6.261,10.916,7.064,13.645,7.064
	c2.728,0,5.136-3.532,5.136-3.532s1.285-0.963,2.729,2.247c1.444,3.21,0,7.866-1.445,17.337c-1.445,9.472-2.409,23.598-6.261,35.155
	c-3.853,11.559-4.976,21.672-6.742,44.949c-1.766,23.276,0.964,30.34,3.371,35.636c2.408,5.299,19.745,23.919,24.08,26.327
	c4.333,2.409,9.471-0.32,12.2,0.964c2.728,1.284,10.273,8.187,13.323,8.669c3.051,0.481,8.508,8.186,14.609,10.113
	c6.1,1.926,5.938,2.407,13.163,11.076c7.223,8.669,6.582,4.013,7.705,9.631c1.125,5.619,3.05,8.348,5.941,9.793
	c2.889,1.444,10.594,4.174,12.039,5.459c1.444,1.282,0.964,4.976-3.371,20.064c-4.335,15.09-10.916,21.671-12.522,23.116
	c-1.605,1.444-4.494,0.643-7.383,0.161c-2.89-0.481-5.297-2.408-9.633-2.408c-4.334,0-0.32,3.691,1.285,3.691
	c1.606,0,6.581,1.124,8.348,2.408c1.765,1.284-11.398,0.803-15.571,0.482c-4.174-0.322-6.26,0.802-12.041,3.691
	c-5.778,2.89-2.085,3.371,5.458,3.371c7.545,0,18.782,0.803,23.598-0.642s3.531,0.16,3.531,0.16
	c-0.883,1.606-1.445,4.415,1.044,4.977c2.487,0.562,6.421-4.416,9.711-7.706c3.29-3.29,5.219-4.575,6.741-4.575
	c1.525,0,6.422,2.729,10.838,2.971c4.414,0.24,5.938-0.723,2.406-2.328s-12.843-0.723-12.119-9.23
	c0.722-8.508,4.281-13.271,4.281-13.271c1.497,0.215,9.523,1.713,14.018,1.713c4.496,0,4.924-0.214,4.924,0.855
	s-3.424,3.639-5.564,5.138c-2.143,1.497-10.701,4.066-13.913,6.849c-3.21,2.783,5.351,1.713,8.349,0.856
	c2.996-0.857,4.066-2.141,6.205-2.354c2.141-0.214,12.629-6.206,14.555-8.562c1.928-2.354,7.277-2.354,9.205-1.499
	c1.926,0.857,2.141,4.281,5.564,8.991c3.424,4.708,3.424,2.781,3.424-0.215s-3.209-5.993-3.639-10.487
	c-0.428-4.495-2.354-9.847-2.568-11.772c-0.213-1.926,14.127,1.498,15.41,1.07c1.285-0.429-1.709-2.141-6.42-2.996
	c-4.711-0.856-8.133-1.285-10.916-6.851s-0.855-19.904-0.855-19.904s7.705,0,14.768-0.215c7.064-0.214,17.766-8.348,27.826-14.769
	c10.059-6.421,23.543-27.289,26.594-42.059c3.049-14.769,1.443-14.607-0.482-20.226c-1.926-5.619-1.766-10.113-1.766-14.608
	s10.596-10.274,10.434-18.942c-0.16-8.668-0.32-14.929,2.088-13.966s4.816-2.889,8.027-6.421
	C332.586,172.16,330.5,165.096,328.732,157.391z M228.619,334.399c-2.355,4.924-4.281,9.418-8.027,10.061
	c-3.746,0.642-15.41-0.536-15.41-0.536s5.029-15.732,9.311-20.012c4.279-4.281,7.277-3.425,10.381-7.706
	c3.102-4.28,6.848-7.17,7.17-2.141C232.363,319.096,230.973,329.478,228.619,334.399z"/>
</svg>
