<?xml version="1.0" encoding="utf-8"?>
<!-- Generator: Adobe Illustrator 15.0.1, SVG Export Plug-In . SVG Version: 6.00 Build 0)  -->
<!DOCTYPE svg PUBLIC "-//W3C//DTD SVG 1.1//EN" "http://www.w3.org/Graphics/SVG/1.1/DTD/svg11.dtd">
<svg version="1.1" id="Layer_1" xmlns="http://www.w3.org/2000/svg" xmlns:xlink="http://www.w3.org/1999/xlink" x="0px" y="0px"
	 width="400px" height="400px" viewBox="0 0 400 400" enable-background="new 0 0 400 400" xml:space="preserve">
<circle fill="#FFFFFF" stroke="#DCDBDB" stroke-width="5" stroke-miterlimit="10" cx="203.004" cy="202.679" r="194.69"/>
<g>
	<path fill="#FFFFFF" d="M203.004,353.605c-83.222,0-150.928-67.705-150.928-150.928c0-83.222,67.706-150.929,150.928-150.929
		c83.223,0,150.929,67.707,150.929,150.929C353.933,285.9,286.227,353.605,203.004,353.605z"/>
	<path fill="#DCDBDB" d="M203.004,65.75c36.575,0,70.961,14.243,96.823,40.105s40.104,60.248,40.104,96.823
		c0,36.574-14.242,70.961-40.104,96.822c-25.863,25.861-60.249,40.105-96.823,40.105c-36.575,0-70.96-14.244-96.823-40.105
		c-25.863-25.861-40.105-60.248-40.105-96.822c0-36.575,14.243-70.961,40.105-96.823C132.043,79.993,166.429,65.75,203.004,65.75
		 M203.004,37.75c-91.087,0-164.928,73.841-164.928,164.93c0,91.086,73.841,164.928,164.928,164.928s164.929-73.842,164.929-164.928
		C367.933,111.591,294.091,37.75,203.004,37.75L203.004,37.75z"/>
</g>
<rect x="50.644" y="128.496" fill="none" width="304.721" height="178.8"/>
<text transform="matrix(1 0 0 1 65.2075 182.4961)" enable-background="new    "><tspan x="0" y="0" font-family="'ChunkFive-Roman'" font-size="72">I’m still </tspan><tspan x="-20.161" y="86.4" font-family="'ChunkFive-Roman'" font-size="72">thinking </tspan></text>
</svg>
